<svg width="32" height="33" viewBox="0 0 32 33" fill="currentColor" fill-opacity="0" xmlns="http://www.w3.org/2000/svg">
<g clip-path="url(#clip0_7608_14890)">
<path d="M9.76746 27.2784H22.2265" stroke="currentColor" stroke-width="1.27982" stroke-linecap="round" stroke-linejoin="round"/>
<path d="M10.4137 29.7901H21.5801" stroke="currentColor" stroke-width="1.27982" stroke-linecap="round" stroke-linejoin="round"/>
<path d="M10.7375 24.7636H21.2576" stroke="currentColor" stroke-width="1.27982" stroke-linecap="round" stroke-linejoin="round"/>
<path d="M27.1467 12.7398C27.1475 10.8273 26.6564 8.94685 25.7206 7.27901C24.7848 5.61117 23.4358 4.21205 21.8031 3.21611C20.1705 2.22018 18.3091 1.66089 16.3979 1.59201C14.4867 1.52313 12.59 1.94697 10.8899 2.8228C9.18976 3.69863 7.7435 4.997 6.69007 6.59315C5.63663 8.18929 5.01143 10.0296 4.87455 11.9371C4.73767 13.8446 5.0937 15.7553 5.90845 17.4855C6.72319 19.2157 7.96925 20.7073 9.52687 21.8169C9.89637 22.0748 10.1989 22.4172 10.4093 22.8157C10.6196 23.2142 10.7318 23.6572 10.7363 24.1077V27.0449C10.7363 28.44 11.2905 29.7779 12.2769 30.7643C13.2634 31.7508 14.6013 32.305 15.9963 32.305V32.305C17.3914 32.305 18.7293 31.7508 19.7158 30.7643C20.7022 29.7779 21.2564 28.44 21.2564 27.0449V24.1077C21.2598 23.6589 21.3705 23.2174 21.5792 22.82C21.7879 22.4226 22.0886 22.0808 22.4562 21.8233C23.9069 20.7941 25.0898 19.4323 25.9059 17.8518C26.722 16.2714 27.1475 14.5185 27.1467 12.7398V12.7398Z" stroke="currentColor" stroke-width="1.27982" stroke-linecap="round" stroke-linejoin="round"/>
<path d="M16.9288 5.6496L12.4303 13.834L15.6618 14.0196L15.3387 20.6266L20.2404 11.6295L17.0088 11.4408L16.9288 5.6496Z" stroke="currentColor" stroke-width="1.27982" stroke-linecap="round" stroke-linejoin="round"/>
</g>
<defs>
<clipPath id="clip0_7608_14890">
<rect width="31.9954" height="31.9954" fill="white" transform="translate(0 0.949402)"/>
</clipPath>
</defs>
</svg>
