<svg width="32" height="33" viewBox="0 0 32 33" fill="currentColor" fill-opacity="0" xmlns="http://www.w3.org/2000/svg">
<g clip-path="url(#clip0_7608_14899)">
<path d="M15.9987 22.8242H29.6863C30.1287 22.8242 30.553 22.9997 30.8661 23.3122C31.1793 23.6248 31.3556 24.0488 31.3564 24.4912V30.5703C31.3564 31.0132 31.1805 31.438 30.8673 31.7513C30.554 32.0645 30.1292 32.2404 29.6863 32.2404H2.31103C1.86807 32.2404 1.44326 32.0645 1.13005 31.7513C0.816832 31.438 0.640869 31.0132 0.640869 30.5703V24.4912C0.641717 24.0488 0.818053 23.6248 1.13118 23.3122C1.4443 22.9997 1.86863 22.8242 2.31103 22.8242H12.1208" stroke="currentColor" stroke-width="1.27982" stroke-linecap="round" stroke-linejoin="round"/>
<path d="M18.454 27.5307H26.3408" stroke="currentColor" stroke-width="1.27982" stroke-linecap="round" stroke-linejoin="round"/>
<path d="M15.9978 22.8242V14.7262H9.50272C8.95548 14.7415 8.41073 14.6469 7.90067 14.448C7.39061 14.2492 6.9256 13.9501 6.53312 13.5684C6.14064 13.1868 5.82866 12.7303 5.61564 12.226C5.40261 11.7217 5.29285 11.1798 5.29285 10.6324C5.29285 10.0849 5.40261 9.54302 5.61564 9.03871C5.82866 8.53441 6.14064 8.07794 6.53312 7.69628C6.9256 7.31462 7.39061 7.01552 7.90067 6.81667C8.41073 6.61782 8.95548 6.52325 9.50272 6.53855C9.68458 6.53901 9.86623 6.55077 10.0466 6.57375C10.1281 5.30763 10.6519 4.1104 11.5265 3.19132C12.4011 2.27223 13.5709 1.68974 14.8315 1.54566C16.092 1.40158 17.3631 1.70507 18.4225 2.40308C19.482 3.1011 20.2625 4.14924 20.6275 5.36432C21.2803 5.19419 21.9619 5.16503 22.6268 5.27877C23.2918 5.39251 23.9249 5.64656 24.4841 6.024C25.0432 6.40144 25.5156 6.89363 25.8697 7.46781C26.2239 8.04199 26.4517 8.68501 26.538 9.35408C26.6243 10.0232 26.5672 10.7029 26.3704 11.3482C26.1735 11.9935 25.8416 12.5894 25.3965 13.0964C24.9515 13.6034 24.4036 14.0099 23.7893 14.2887C23.175 14.5675 22.5084 14.7122 21.8337 14.7134H19.1621" stroke="currentColor" stroke-width="1.27982" stroke-linecap="round" stroke-linejoin="round"/>
<path d="M5.40012 28.7457C6.06962 28.7457 6.61236 28.203 6.61236 27.5335C6.61236 26.864 6.06962 26.3212 5.40012 26.3212C4.73061 26.3212 4.18787 26.864 4.18787 27.5335C4.18787 28.203 4.73061 28.7457 5.40012 28.7457Z" stroke="currentColor" stroke-width="1.27982" stroke-linecap="round" stroke-linejoin="round"/>
<path d="M11.1633 28.7457C11.8328 28.7457 12.3755 28.203 12.3755 27.5335C12.3755 26.864 11.8328 26.3212 11.1633 26.3212C10.4938 26.3212 9.95105 26.864 9.95105 27.5335C9.95105 28.203 10.4938 28.7457 11.1633 28.7457Z" stroke="currentColor" stroke-width="1.27982" stroke-linecap="round" stroke-linejoin="round"/>
</g>
<defs>
<clipPath id="clip0_7608_14899">
<rect width="31.9954" height="31.9954" fill="white" transform="translate(0 0.884888)"/>
</clipPath>
</defs>
</svg>
