<svg width="32" height="33" viewBox="0 0 32 33" fill="currentColor" fill-opacity="0" xmlns="http://www.w3.org/2000/svg">
<g clip-path="url(#clip0_7608_14906)">
<path d="M13.6162 1.81174C15.1936 1.56536 16.7997 1.56536 18.3771 1.81174L19.3178 4.40017C19.4323 4.70738 19.6089 4.98771 19.8365 5.22367C20.0641 5.45963 20.3379 5.64617 20.6408 5.77165C20.9437 5.89713 21.2692 5.95887 21.597 5.953C21.9248 5.94714 22.2479 5.87381 22.5461 5.73758L25.0386 4.57294C26.3284 5.51456 27.4648 6.64995 28.4077 7.93886L27.243 10.4345C27.1068 10.7327 27.0335 11.0558 27.0276 11.3836C27.0218 11.7114 27.0835 12.0369 27.209 12.3398C27.3344 12.6427 27.521 12.9165 27.7569 13.1441C27.9929 13.3717 28.2732 13.5483 28.5805 13.6628L31.1689 14.6035C31.4153 16.1809 31.4153 17.787 31.1689 19.3644L28.5805 20.3051C28.2732 20.4196 27.9929 20.5962 27.7569 20.8238C27.521 21.0514 27.3344 21.3252 27.209 21.6281C27.0835 21.931 27.0218 22.2565 27.0276 22.5843C27.0335 22.9121 27.1068 23.2352 27.243 23.5334L28.4077 26.029C27.4648 27.318 26.3284 28.4533 25.0386 29.395L22.5461 28.2303C22.2479 28.0941 21.9248 28.0208 21.597 28.0149C21.2692 28.009 20.9437 28.0708 20.6408 28.1962C20.3379 28.3217 20.0641 28.5083 19.8365 28.7442C19.6089 28.9802 19.4323 29.2605 19.3178 29.5677L18.9978 30.4764" stroke="currentColor" stroke-width="1.27982" stroke-linecap="round" stroke-linejoin="round"/>
<path d="M18.3795 32.1561C16.8021 32.4025 15.196 32.4025 13.6186 32.1561L12.6779 29.5677C12.5634 29.2605 12.3868 28.9802 12.1592 28.7442C11.9316 28.5082 11.6578 28.3217 11.3549 28.1962C11.052 28.0707 10.7265 28.009 10.3987 28.0149C10.0709 28.0207 9.74777 28.0941 9.44955 28.2303L6.95711 29.3949C5.66646 28.453 4.52988 27.3165 3.588 26.0258L4.75263 23.5334C4.89183 23.2356 4.9675 22.9121 4.97481 22.5835C4.98213 22.2548 4.92093 21.9283 4.79513 21.6246C4.66932 21.3209 4.48165 21.0467 4.24408 20.8196C4.0065 20.5924 3.72423 20.4171 3.41522 20.305L0.826795 19.3644C0.580359 17.787 0.580359 16.1809 0.826795 14.6035L3.41522 13.6628C3.72243 13.5483 4.00276 13.3717 4.23872 13.1441C4.47469 12.9165 4.66123 12.6427 4.78671 12.3398C4.91219 12.0369 4.97392 11.7114 4.96806 11.3836C4.9622 11.0558 4.88886 10.7327 4.75263 10.4345L3.588 7.93883C4.53084 6.64991 5.6673 5.51453 6.95711 4.57291L9.44955 5.73754C9.74777 5.87378 10.0709 5.94711 10.3987 5.95297C10.7265 5.95884 11.052 5.8971 11.3549 5.77162C11.6578 5.64614 11.9316 5.4596 12.1592 5.22364C12.3868 4.98768 12.5634 4.70735 12.6779 4.40014L12.953 3.64185" stroke="currentColor" stroke-width="1.27982" stroke-linecap="round" stroke-linejoin="round"/>
<path d="M21.5624 16.9839L12.9908 22.7431V11.2247L21.5624 16.9839Z" stroke="currentColor" stroke-width="1.27982" stroke-linecap="round" stroke-linejoin="round"/>
</g>
<defs>
<clipPath id="clip0_7608_14906">
<rect width="31.9954" height="31.9954" fill="white" transform="translate(0 0.986206)"/>
</clipPath>
</defs>
</svg>
