<svg width="32" height="33" viewBox="0 0 32 33" fill="currentColor" fill-opacity="0" xmlns="http://www.w3.org/2000/svg">
<g clip-path="url(#clip0_7608_14982)">
<path d="M24.3867 14.909V9.97854C24.3867 7.75359 23.5029 5.61977 21.9296 4.04649C20.3563 2.47321 18.2225 1.58936 15.9975 1.58936V1.58936C14.0947 1.58924 12.2483 2.23577 10.7612 3.42289C9.27413 4.61001 8.23459 6.26726 7.81311 8.12281" stroke="currentColor" stroke-width="1.27982" stroke-linecap="round" stroke-linejoin="round"/>
<path d="M27.9852 32.3049H4.01428V17.4686" stroke="currentColor" stroke-width="1.27982" stroke-linecap="round" stroke-linejoin="round"/>
<path d="M4.01428 14.9091H27.9852V29.7421" stroke="currentColor" stroke-width="1.27982" stroke-linecap="round" stroke-linejoin="round"/>
<path d="M18.1216 23.0998C18.1225 22.7296 18.0264 22.3655 17.8429 22.0438C17.6595 21.7222 17.395 21.4542 17.0759 21.2664C16.7567 21.0787 16.3939 20.9778 16.0237 20.9737C15.6534 20.9696 15.2885 21.0625 14.9653 21.2432C14.6421 21.4239 14.3718 21.686 14.1813 22.0035C13.9908 22.3211 13.8867 22.6829 13.8794 23.0531C13.8722 23.4234 13.9619 23.789 14.1398 24.1138C14.3176 24.4386 14.5774 24.7111 14.8933 24.9044V27.1441C14.892 27.2902 14.9197 27.4352 14.9748 27.5706C15.0298 27.7061 15.1112 27.8292 15.2141 27.9331C15.317 28.0369 15.4395 28.1193 15.5744 28.1755C15.7094 28.2317 15.8541 28.2607 16.0003 28.2607V28.2607C16.2939 28.2607 16.5755 28.1441 16.7831 27.9364C16.9907 27.7288 17.1074 27.4473 17.1074 27.1537V24.914C17.4183 24.7245 17.675 24.4579 17.8527 24.1401C18.0304 23.8223 18.123 23.464 18.1216 23.0998V23.0998Z" stroke="currentColor" stroke-width="1.27982" stroke-linecap="round" stroke-linejoin="round"/>
</g>
<defs>
<clipPath id="clip0_7608_14982">
<rect width="31.9954" height="31.9954" fill="white" transform="translate(0 0.949402)"/>
</clipPath>
</defs>
</svg>
