<svg width="33" height="33" viewBox="0 0 33 33" fill="currentColor" fill-opacity="0" xmlns="http://www.w3.org/2000/svg">
<g clip-path="url(#clip0_7608_14946)">
<path d="M26.243 23.2103C26.2445 24.565 26.7829 25.864 27.7404 26.8225V26.8225C27.8959 26.9767 28.0021 27.1737 28.0453 27.3884C28.0886 27.6032 28.067 27.8259 27.9833 28.0283C27.8996 28.2307 27.7576 28.4036 27.5753 28.525C27.393 28.6465 27.1787 28.711 26.9597 28.7103H3.11675C2.89773 28.711 2.68345 28.6465 2.50118 28.525C2.3189 28.4036 2.17688 28.2307 2.09317 28.0283C2.00947 27.8259 1.98787 27.6032 2.03112 27.3884C2.07438 27.1737 2.18053 26.9767 2.33607 26.8225V26.8225C3.29235 25.8635 3.82962 24.5646 3.83025 23.2103V16.7024C3.83025 10.4793 8.92391 5.27044 15.1438 5.38882C17.7831 5.43558 20.3185 6.42523 22.2916 8.17882" stroke="currentColor" stroke-width="1.27982" stroke-linecap="round" stroke-linejoin="round"/>
<path d="M18.559 28.7103C18.5309 29.6552 18.1359 30.552 17.4576 31.2104C16.7793 31.8689 15.8712 32.2372 14.9259 32.2372C13.9806 32.2372 13.0725 31.8689 12.3942 31.2104C11.7159 30.552 11.3209 29.6552 11.2928 28.7103" stroke="currentColor" stroke-width="1.27982" stroke-linecap="round" stroke-linejoin="round"/>
<path d="M15.1462 5.39555C16.187 5.39555 17.0308 4.55176 17.0308 3.51089C17.0308 2.47001 16.187 1.62622 15.1462 1.62622C14.1053 1.62622 13.2615 2.47001 13.2615 3.51089C13.2615 4.55176 14.1053 5.39555 15.1462 5.39555Z" stroke="currentColor" stroke-width="1.27982" stroke-linecap="round" stroke-linejoin="round"/>
<path d="M25.9059 21.2841C29.2597 21.2841 31.9786 18.5653 31.9786 15.2114C31.9786 11.8575 29.2597 9.13867 25.9059 9.13867C22.552 9.13867 19.8331 11.8575 19.8331 15.2114C19.8331 18.5653 22.552 21.2841 25.9059 21.2841Z" stroke="currentColor" stroke-width="1.27982" stroke-linecap="round" stroke-linejoin="round"/>
<path d="M24.6008 13.8597L26.2451 12.8917V17.5393" stroke="currentColor" stroke-width="1.27982" stroke-linecap="round" stroke-linejoin="round"/>
</g>
<defs>
<clipPath id="clip0_7608_14946">
<rect width="31.9954" height="31.9954" fill="white" transform="translate(0.995361 0.986206)"/>
</clipPath>
</defs>
</svg>
