<svg viewBox="0 0 32 32" fill="currentColor" xmlns="http://www.w3.org/2000/svg">
<path d="M16 22C11.58 22 8 18.42 8 14V8C8 3.58 11.58 0 16 0C20.42 0 24 3.58 24 8V14C24 18.42 20.42 22 16 22ZM16 2C12.7 2 10 4.7 10 8V14C10 17.3 12.7 20 16 20C19.3 20 22 17.3 22 14V8C22 4.7 19.3 2 16 2Z"/>
<path d="M16 28C8.28 28 2 21.72 2 14V12H4V14C4 20.62 9.38 26 16 26C22.62 26 28 20.62 28 14V12H30V14C30 21.72 23.72 28 16 28Z"/>
<path d="M17 27.68H15V32H17V27.68Z"/>
<path d="M22 30H10V32H22V30Z"/>
</svg>
