<svg width="33" height="33" viewBox="0 0 33 33" fill="currentColor" fill-opacity="0" xmlns="http://www.w3.org/2000/svg">
<g clip-path="url(#clip0_7608_15003)">
<path d="M16.994 20.3775C25.7095 15.6581 18.5137 11.1532 16.994 14.8711C15.4742 11.1564 8.27842 15.6581 16.994 20.3775Z" stroke="currentColor" stroke-width="1.27982" stroke-linecap="round" stroke-linejoin="round"/>
<path d="M7.66489 4.73814C9.52732 3.31298 11.6914 2.33328 13.9912 1.87416C16.2909 1.41504 18.6653 1.48869 20.9322 2.08946C23.1991 2.69024 25.2983 3.80218 27.0688 5.34003C28.8393 6.87787 30.2341 8.80076 31.1463 10.9612" stroke="currentColor" stroke-width="1.27982" stroke-linecap="round" stroke-linejoin="round"/>
<path d="M16.9929 7.237C19.5655 7.23785 22.0325 8.26019 23.8516 10.0793C25.6707 11.8984 26.693 14.3654 26.6939 16.938" stroke="currentColor" stroke-width="1.27982" stroke-linecap="round" stroke-linejoin="round"/>
<path d="M7.29478 16.938C7.29476 15.031 7.85683 13.1662 8.91073 11.5768C9.96463 9.98741 11.4636 8.7439 13.2203 8.00171" stroke="currentColor" stroke-width="1.27982" stroke-linecap="round" stroke-linejoin="round"/>
<path d="M24.2409 23.3883C23.1033 24.6661 21.648 25.6204 20.0225 26.1542C18.3971 26.6881 16.6594 26.7826 14.9856 26.4282C13.3118 26.0738 11.7616 25.283 10.4921 24.1361C9.22256 22.9891 8.27894 21.5269 7.75693 19.8976" stroke="currentColor" stroke-width="1.27982" stroke-linecap="round" stroke-linejoin="round"/>
<path d="M6.0872 27.7492C3.58583 25.2261 2.03661 21.9138 1.70348 18.3766C1.37036 14.8394 2.27393 11.2961 4.26026 8.3504" stroke="currentColor" stroke-width="1.27982" stroke-linecap="round" stroke-linejoin="round"/>
<path d="M32.3521 16.938C32.3527 19.3169 31.8006 21.6634 30.7394 23.7926C29.6783 25.9217 28.137 27.7752 26.2371 29.2069C24.3373 30.6386 22.1308 31.6094 19.7917 32.0427C17.4525 32.4761 15.0447 32.36 12.7581 31.7039" stroke="currentColor" stroke-width="1.27982" stroke-linecap="round" stroke-linejoin="round"/>
</g>
<defs>
<clipPath id="clip0_7608_15003">
<rect width="31.9954" height="31.9954" fill="white" transform="translate(0.995361 0.940247)"/>
</clipPath>
</defs>
</svg>
