<svg width="1338" height="283" viewBox="0 0 1338 283" fill="none" xmlns="http://www.w3.org/2000/svg">
<path d="M21 196.592C21 233.795 51.1592 263.954 88.3624 263.954C125.566 263.954 155.725 233.795 155.725 196.592V120.044H21V196.592Z" fill="#DEC9F0"/>
<path d="M21 86.3625C21 49.1592 51.1592 19 88.3624 19C125.566 19 155.725 49.1592 155.725 86.3624V198.123C155.725 182.903 143.387 170.566 128.168 170.566H57.7431C37.4505 170.566 21 154.115 21 133.822V86.3625Z" fill="url(#paint0_linear)"/>
<path d="M262.464 182.344C257.312 182.344 252.533 181.373 248.128 179.432C243.723 177.491 239.915 174.84 236.704 171.48L242.304 164.984C244.917 167.747 247.979 169.987 251.488 171.704C255.072 173.347 258.768 174.168 262.576 174.168C267.429 174.168 271.2 173.085 273.888 170.92C276.576 168.68 277.92 165.768 277.92 162.184C277.92 160.317 277.584 158.749 276.912 157.48C276.315 156.136 275.456 155.016 274.336 154.12C273.291 153.149 272.021 152.291 270.528 151.544C269.035 150.797 267.429 150.013 265.712 149.192L255.184 144.6C253.467 143.853 251.712 142.957 249.92 141.912C248.128 140.867 246.523 139.597 245.104 138.104C243.685 136.611 242.528 134.856 241.632 132.84C240.736 130.749 240.288 128.36 240.288 125.672C240.288 122.909 240.848 120.333 241.968 117.944C243.163 115.555 244.768 113.501 246.784 111.784C248.875 109.992 251.301 108.611 254.064 107.64C256.901 106.669 260 106.184 263.36 106.184C267.765 106.184 271.835 107.043 275.568 108.76C279.301 110.403 282.475 112.568 285.088 115.256L280.048 121.304C277.808 119.139 275.307 117.459 272.544 116.264C269.856 114.995 266.795 114.36 263.36 114.36C259.253 114.36 255.931 115.331 253.392 117.272C250.928 119.139 249.696 121.752 249.696 125.112C249.696 126.904 250.032 128.435 250.704 129.704C251.451 130.899 252.421 131.981 253.616 132.952C254.811 133.848 256.117 134.669 257.536 135.416C258.955 136.088 260.411 136.723 261.904 137.32L272.32 141.8C274.411 142.696 276.389 143.741 278.256 144.936C280.123 146.056 281.728 147.4 283.072 148.968C284.416 150.461 285.461 152.253 286.208 154.344C287.029 156.36 287.44 158.712 287.44 161.4C287.44 164.312 286.843 167.037 285.648 169.576C284.528 172.115 282.885 174.355 280.72 176.296C278.555 178.163 275.941 179.656 272.88 180.776C269.819 181.821 266.347 182.344 262.464 182.344ZM310.756 182.344C307.247 182.344 304.745 181.299 303.252 179.208C301.759 177.117 301.012 174.056 301.012 170.024V101.256H310.196V170.696C310.196 172.189 310.457 173.235 310.98 173.832C311.503 174.429 312.1 174.728 312.772 174.728C313.071 174.728 313.332 174.728 313.556 174.728C313.855 174.728 314.265 174.653 314.788 174.504L316.02 181.448C315.423 181.747 314.713 181.971 313.892 182.12C313.071 182.269 312.025 182.344 310.756 182.344ZM329.559 181V126.568H338.743V181H329.559ZM334.263 115.368C332.471 115.368 330.94 114.808 329.671 113.688C328.476 112.568 327.879 111.149 327.879 109.432C327.879 107.64 328.476 106.221 329.671 105.176C330.94 104.056 332.471 103.496 334.263 103.496C336.055 103.496 337.548 104.056 338.743 105.176C340.012 106.221 340.647 107.64 340.647 109.432C340.647 111.149 340.012 112.568 338.743 113.688C337.548 114.808 336.055 115.368 334.263 115.368ZM357.122 203.96V126.568H364.738L365.522 132.84H365.858C368.322 130.749 371.01 128.957 373.922 127.464C376.908 125.971 380.007 125.224 383.218 125.224C386.727 125.224 389.826 125.896 392.514 127.24C395.202 128.509 397.442 130.376 399.234 132.84C401.026 135.229 402.37 138.141 403.266 141.576C404.236 144.936 404.722 148.744 404.722 153C404.722 157.629 404.087 161.773 402.818 165.432C401.548 169.016 399.831 172.077 397.666 174.616C395.5 177.155 392.999 179.096 390.162 180.44C387.324 181.709 384.338 182.344 381.202 182.344C378.663 182.344 376.124 181.784 373.586 180.664C371.122 179.544 368.62 178.013 366.082 176.072L366.306 185.592V203.96H357.122ZM379.634 174.616C381.874 174.616 383.927 174.131 385.794 173.16C387.735 172.115 389.378 170.696 390.722 168.904C392.14 167.037 393.223 164.76 393.97 162.072C394.791 159.384 395.202 156.36 395.202 153C395.202 150.013 394.94 147.288 394.418 144.824C393.895 142.36 393.036 140.269 391.842 138.552C390.722 136.76 389.228 135.379 387.362 134.408C385.57 133.437 383.404 132.952 380.865 132.952C378.551 132.952 376.199 133.587 373.81 134.856C371.495 136.125 368.994 137.955 366.306 140.344V168.904C368.77 170.995 371.159 172.488 373.474 173.384C375.788 174.205 377.842 174.616 379.634 174.616ZM419.247 203.96V126.568H426.863L427.647 132.84H427.983C430.447 130.749 433.135 128.957 436.047 127.464C439.033 125.971 442.132 125.224 445.343 125.224C448.852 125.224 451.951 125.896 454.639 127.24C457.327 128.509 459.567 130.376 461.359 132.84C463.151 135.229 464.495 138.141 465.391 141.576C466.361 144.936 466.847 148.744 466.847 153C466.847 157.629 466.212 161.773 464.943 165.432C463.673 169.016 461.956 172.077 459.791 174.616C457.625 177.155 455.124 179.096 452.287 180.44C449.449 181.709 446.463 182.344 443.327 182.344C440.788 182.344 438.249 181.784 435.711 180.664C433.247 179.544 430.745 178.013 428.207 176.072L428.431 185.592V203.96H419.247ZM441.759 174.616C443.999 174.616 446.052 174.131 447.919 173.16C449.86 172.115 451.503 170.696 452.847 168.904C454.265 167.037 455.348 164.76 456.095 162.072C456.916 159.384 457.327 156.36 457.327 153C457.327 150.013 457.065 147.288 456.543 144.824C456.02 142.36 455.161 140.269 453.967 138.552C452.847 136.76 451.353 135.379 449.487 134.408C447.695 133.437 445.529 132.952 442.99 132.952C440.676 132.952 438.324 133.587 435.935 134.856C433.62 136.125 431.119 137.955 428.431 140.344V168.904C430.895 170.995 433.284 172.488 435.599 173.384C437.913 174.205 439.967 174.616 441.759 174.616ZM503.436 182.344C499.777 182.344 496.342 181.709 493.132 180.44C489.996 179.096 487.233 177.229 484.844 174.84C482.529 172.376 480.7 169.389 479.356 165.88C478.012 162.371 477.34 158.376 477.34 153.896C477.34 149.416 478.012 145.421 479.356 141.912C480.774 138.328 482.604 135.304 484.844 132.84C487.158 130.376 489.772 128.509 492.684 127.24C495.596 125.896 498.62 125.224 501.755 125.224C505.19 125.224 508.252 125.821 510.94 127.016C513.702 128.211 515.98 129.928 517.772 132.168C519.638 134.408 521.057 137.096 522.028 140.232C522.998 143.368 523.484 146.877 523.484 150.76C523.484 151.731 523.446 152.701 523.372 153.672C523.372 154.568 523.297 155.352 523.148 156.024H486.412C486.785 161.848 488.577 166.477 491.788 169.912C495.073 173.272 499.329 174.952 504.556 174.952C507.169 174.952 509.558 174.579 511.724 173.832C513.964 173.011 516.092 171.965 518.108 170.696L521.356 176.744C518.966 178.237 516.316 179.544 513.404 180.664C510.492 181.784 507.169 182.344 503.436 182.344ZM486.3 149.416H515.42C515.42 143.891 514.225 139.709 511.836 136.872C509.521 133.96 506.236 132.504 501.98 132.504C500.038 132.504 498.172 132.877 496.38 133.624C494.662 134.371 493.094 135.491 491.676 136.984C490.257 138.403 489.062 140.157 488.092 142.248C487.196 144.339 486.598 146.728 486.3 149.416ZM536.934 181V126.568H544.55L545.334 136.424H545.67C547.537 132.989 549.777 130.264 552.39 128.248C555.078 126.232 557.99 125.224 561.126 125.224C563.291 125.224 565.233 125.597 566.95 126.344L565.158 134.408C564.262 134.109 563.441 133.885 562.694 133.736C561.947 133.587 561.014 133.512 559.894 133.512C557.579 133.512 555.153 134.445 552.614 136.312C550.15 138.179 547.985 141.427 546.118 146.056V181H536.934ZM589.549 182.344C585.666 182.344 581.97 181.635 578.461 180.216C574.951 178.797 571.89 177.005 569.277 174.84L573.869 168.68C576.258 170.621 578.685 172.189 581.149 173.384C583.687 174.579 586.599 175.176 589.885 175.176C593.469 175.176 596.157 174.355 597.949 172.712C599.741 171.069 600.637 169.053 600.637 166.664C600.637 165.245 600.263 164.013 599.517 162.968C598.77 161.923 597.799 161.027 596.605 160.28C595.485 159.459 594.178 158.749 592.685 158.152C591.191 157.555 589.698 156.957 588.205 156.36C586.263 155.688 584.322 154.941 582.381 154.12C580.439 153.224 578.685 152.179 577.117 150.984C575.623 149.715 574.391 148.259 573.421 146.616C572.45 144.973 571.965 142.995 571.965 140.68C571.965 138.515 572.375 136.499 573.197 134.632C574.093 132.691 575.325 131.048 576.893 129.704C578.535 128.285 580.514 127.203 582.829 126.456C585.143 125.635 587.757 125.224 590.669 125.224C594.103 125.224 597.239 125.821 600.077 127.016C602.989 128.211 605.49 129.667 607.581 131.384L603.213 137.208C601.346 135.789 599.405 134.632 597.389 133.736C595.373 132.84 593.17 132.392 590.781 132.392C587.346 132.392 584.807 133.176 583.165 134.744C581.597 136.312 580.813 138.141 580.813 140.232C580.813 141.501 581.149 142.621 581.821 143.592C582.493 144.488 583.389 145.309 584.509 146.056C585.629 146.728 586.898 147.363 588.317 147.96C589.81 148.483 591.341 149.043 592.909 149.64C594.85 150.387 596.791 151.171 598.733 151.992C600.749 152.813 602.541 153.859 604.109 155.128C605.677 156.323 606.946 157.816 607.917 159.608C608.962 161.4 609.485 163.565 609.485 166.104C609.485 168.344 609.037 170.435 608.141 172.376C607.319 174.317 606.05 176.035 604.333 177.528C602.69 179.021 600.599 180.179 598.061 181C595.597 181.896 592.759 182.344 589.549 182.344ZM645.564 181V107.528H663.932C675.282 107.528 683.906 110.664 689.804 116.936C695.703 123.208 698.652 132.205 698.652 143.928C698.652 149.752 697.906 154.979 696.412 159.608C694.919 164.163 692.716 168.045 689.804 171.256C686.892 174.392 683.308 176.819 679.052 178.536C674.796 180.179 669.906 181 664.38 181H645.564ZM654.86 173.384H663.26C671.847 173.384 678.268 170.808 682.524 165.656C686.855 160.504 689.02 153.261 689.02 143.928C689.02 134.595 686.855 127.464 682.524 122.536C678.268 117.608 671.847 115.144 663.26 115.144H654.86V173.384ZM735.639 182.344C731.98 182.344 728.545 181.709 725.335 180.44C722.199 179.096 719.436 177.229 717.047 174.84C714.732 172.376 712.903 169.389 711.559 165.88C710.215 162.371 709.543 158.376 709.543 153.896C709.543 149.416 710.215 145.421 711.559 141.912C712.977 138.328 714.807 135.304 717.047 132.84C719.361 130.376 721.975 128.509 724.887 127.24C727.799 125.896 730.823 125.224 733.959 125.224C737.393 125.224 740.455 125.821 743.143 127.016C745.905 128.211 748.183 129.928 749.975 132.168C751.841 134.408 753.26 137.096 754.231 140.232C755.201 143.368 755.687 146.877 755.687 150.76C755.687 151.731 755.649 152.701 755.575 153.672C755.575 154.568 755.5 155.352 755.351 156.024H718.615C718.988 161.848 720.78 166.477 723.991 169.912C727.276 173.272 731.532 174.952 736.759 174.952C739.372 174.952 741.761 174.579 743.927 173.832C746.167 173.011 748.295 171.965 750.311 170.696L753.559 176.744C751.169 178.237 748.519 179.544 745.607 180.664C742.695 181.784 739.372 182.344 735.639 182.344ZM718.503 149.416H747.623C747.623 143.891 746.428 139.709 744.039 136.872C741.724 133.96 738.439 132.504 734.183 132.504C732.241 132.504 730.375 132.877 728.583 133.624C726.865 134.371 725.297 135.491 723.879 136.984C722.46 138.403 721.265 140.157 720.295 142.248C719.399 144.339 718.801 146.728 718.503 149.416ZM783.361 182.344C779.478 182.344 775.782 181.635 772.273 180.216C768.764 178.797 765.702 177.005 763.089 174.84L767.681 168.68C770.07 170.621 772.497 172.189 774.961 173.384C777.5 174.579 780.412 175.176 783.697 175.176C787.281 175.176 789.969 174.355 791.761 172.712C793.553 171.069 794.449 169.053 794.449 166.664C794.449 165.245 794.076 164.013 793.329 162.968C792.582 161.923 791.612 161.027 790.417 160.28C789.297 159.459 787.99 158.749 786.497 158.152C785.004 157.555 783.51 156.957 782.017 156.36C780.076 155.688 778.134 154.941 776.193 154.12C774.252 153.224 772.497 152.179 770.929 150.984C769.436 149.715 768.204 148.259 767.233 146.616C766.262 144.973 765.777 142.995 765.777 140.68C765.777 138.515 766.188 136.499 767.009 134.632C767.905 132.691 769.137 131.048 770.705 129.704C772.348 128.285 774.326 127.203 776.641 126.456C778.956 125.635 781.569 125.224 784.481 125.224C787.916 125.224 791.052 125.821 793.889 127.016C796.801 128.211 799.302 129.667 801.393 131.384L797.025 137.208C795.158 135.789 793.217 134.632 791.201 133.736C789.185 132.84 786.982 132.392 784.593 132.392C781.158 132.392 778.62 133.176 776.977 134.744C775.409 136.312 774.625 138.141 774.625 140.232C774.625 141.501 774.961 142.621 775.633 143.592C776.305 144.488 777.201 145.309 778.321 146.056C779.441 146.728 780.71 147.363 782.129 147.96C783.622 148.483 785.153 149.043 786.721 149.64C788.662 150.387 790.604 151.171 792.545 151.992C794.561 152.813 796.353 153.859 797.921 155.128C799.489 156.323 800.758 157.816 801.729 159.608C802.774 161.4 803.297 163.565 803.297 166.104C803.297 168.344 802.849 170.435 801.953 172.376C801.132 174.317 799.862 176.035 798.145 177.528C796.502 179.021 794.412 180.179 791.873 181C789.409 181.896 786.572 182.344 783.361 182.344ZM816.059 181V126.568H825.243V181H816.059ZM820.763 115.368C818.971 115.368 817.44 114.808 816.171 113.688C814.976 112.568 814.379 111.149 814.379 109.432C814.379 107.64 814.976 106.221 816.171 105.176C817.44 104.056 818.971 103.496 820.763 103.496C822.555 103.496 824.048 104.056 825.243 105.176C826.512 106.221 827.147 107.64 827.147 109.432C827.147 111.149 826.512 112.568 825.243 113.688C824.048 114.808 822.555 115.368 820.763 115.368ZM861.99 206.088C858.63 206.088 855.568 205.752 852.806 205.08C850.043 204.483 847.654 203.549 845.638 202.28C843.696 201.011 842.166 199.48 841.046 197.688C840 195.896 839.478 193.805 839.478 191.416C839.478 189.101 840.187 186.899 841.606 184.808C843.024 182.717 844.966 180.813 847.43 179.096V178.648C846.086 177.827 844.928 176.707 843.958 175.288C843.062 173.795 842.614 171.965 842.614 169.8C842.614 167.485 843.248 165.469 844.518 163.752C845.787 162.035 847.131 160.691 848.55 159.72V159.272C846.758 157.779 845.115 155.8 843.622 153.336C842.203 150.797 841.494 147.885 841.494 144.6C841.494 141.613 842.016 138.925 843.062 136.536C844.182 134.147 845.675 132.131 847.542 130.488C849.408 128.771 851.574 127.464 854.038 126.568C856.576 125.672 859.227 125.224 861.99 125.224C863.483 125.224 864.864 125.373 866.134 125.672C867.478 125.896 868.672 126.195 869.718 126.568H888.646V133.624H877.446C878.715 134.893 879.76 136.499 880.582 138.44C881.478 140.381 881.926 142.509 881.926 144.824C881.926 147.736 881.403 150.387 880.358 152.776C879.312 155.091 877.894 157.069 876.102 158.712C874.31 160.28 872.182 161.512 869.718 162.408C867.328 163.304 864.752 163.752 861.99 163.752C860.646 163.752 859.264 163.603 857.846 163.304C856.427 162.931 855.083 162.445 853.814 161.848C852.843 162.669 852.022 163.603 851.35 164.648C850.678 165.619 850.342 166.851 850.342 168.344C850.342 170.061 851.014 171.48 852.358 172.6C853.702 173.72 856.24 174.28 859.974 174.28H870.502C876.848 174.28 881.59 175.325 884.726 177.416C887.936 179.432 889.542 182.717 889.542 187.272C889.542 189.811 888.907 192.2 887.638 194.44C886.368 196.755 884.539 198.771 882.15 200.488C879.76 202.205 876.848 203.549 873.414 204.52C870.054 205.565 866.246 206.088 861.99 206.088ZM861.99 157.592C863.558 157.592 865.014 157.293 866.358 156.696C867.776 156.099 869.008 155.24 870.054 154.12C871.174 153 872.032 151.656 872.63 150.088C873.227 148.445 873.526 146.616 873.526 144.6C873.526 140.568 872.406 137.469 870.166 135.304C867.926 133.064 865.2 131.944 861.99 131.944C858.779 131.944 856.054 133.064 853.814 135.304C851.574 137.469 850.454 140.568 850.454 144.6C850.454 146.616 850.752 148.445 851.35 150.088C851.947 151.656 852.768 153 853.814 154.12C854.934 155.24 856.166 156.099 857.51 156.696C858.928 157.293 860.422 157.592 861.99 157.592ZM863.334 199.704C865.947 199.704 868.299 199.368 870.39 198.696C872.555 198.099 874.384 197.277 875.878 196.232C877.371 195.261 878.528 194.104 879.35 192.76C880.171 191.416 880.582 190.035 880.582 188.616C880.582 186.077 879.648 184.323 877.782 183.352C875.915 182.381 873.19 181.896 869.606 181.896H860.198C859.152 181.896 857.995 181.821 856.726 181.672C855.531 181.597 854.336 181.373 853.142 181C851.2 182.419 849.782 183.912 848.886 185.48C847.99 187.048 847.542 188.616 847.542 190.184C847.542 193.096 848.923 195.411 851.686 197.128C854.523 198.845 858.406 199.704 863.334 199.704ZM900.059 181V126.568H907.675L908.459 134.408H908.795C911.408 131.795 914.134 129.629 916.971 127.912C919.883 126.12 923.243 125.224 927.051 125.224C932.8 125.224 936.982 127.016 939.595 130.6C942.283 134.184 943.627 139.485 943.627 146.504V181H934.443V147.736C934.443 142.584 933.622 138.888 931.979 136.648C930.336 134.333 927.723 133.176 924.139 133.176C921.302 133.176 918.8 133.885 916.635 135.304C914.47 136.723 912.006 138.813 909.243 141.576V181H900.059ZM1005.01 182.344C999.859 182.344 995.08 181.373 990.675 179.432C986.27 177.491 982.462 174.84 979.251 171.48L984.851 164.984C987.464 167.747 990.526 169.987 994.035 171.704C997.619 173.347 1001.31 174.168 1005.12 174.168C1009.98 174.168 1013.75 173.085 1016.43 170.92C1019.12 168.68 1020.47 165.768 1020.47 162.184C1020.47 160.317 1020.13 158.749 1019.46 157.48C1018.86 156.136 1018 155.016 1016.88 154.12C1015.84 153.149 1014.57 152.291 1013.07 151.544C1011.58 150.797 1009.98 150.013 1008.26 149.192L997.731 144.6C996.014 143.853 994.259 142.957 992.467 141.912C990.675 140.867 989.07 139.597 987.651 138.104C986.232 136.611 985.075 134.856 984.179 132.84C983.283 130.749 982.835 128.36 982.835 125.672C982.835 122.909 983.395 120.333 984.515 117.944C985.71 115.555 987.315 113.501 989.331 111.784C991.422 109.992 993.848 108.611 996.611 107.64C999.448 106.669 1002.55 106.184 1005.91 106.184C1010.31 106.184 1014.38 107.043 1018.11 108.76C1021.85 110.403 1025.02 112.568 1027.63 115.256L1022.59 121.304C1020.35 119.139 1017.85 117.459 1015.09 116.264C1012.4 114.995 1009.34 114.36 1005.91 114.36C1001.8 114.36 998.478 115.331 995.939 117.272C993.475 119.139 992.243 121.752 992.243 125.112C992.243 126.904 992.579 128.435 993.251 129.704C993.998 130.899 994.968 131.981 996.163 132.952C997.358 133.848 998.664 134.669 1000.08 135.416C1001.5 136.088 1002.96 136.723 1004.45 137.32L1014.87 141.8C1016.96 142.696 1018.94 143.741 1020.8 144.936C1022.67 146.056 1024.27 147.4 1025.62 148.968C1026.96 150.461 1028.01 152.253 1028.75 154.344C1029.58 156.36 1029.99 158.712 1029.99 161.4C1029.99 164.312 1029.39 167.037 1028.19 169.576C1027.07 172.115 1025.43 174.355 1023.27 176.296C1021.1 178.163 1018.49 179.656 1015.43 180.776C1012.37 181.821 1008.89 182.344 1005.01 182.344ZM1044.46 204.408C1043.19 204.408 1042.03 204.296 1040.98 204.072C1039.94 203.923 1038.97 203.661 1038.07 203.288L1039.86 196.008C1040.46 196.157 1041.13 196.307 1041.88 196.456C1042.63 196.68 1043.34 196.792 1044.01 196.792C1047.14 196.792 1049.68 195.672 1051.62 193.432C1053.64 191.267 1055.21 188.504 1056.33 185.144L1057.56 181.112L1035.72 126.568H1045.24L1056.33 156.696C1057.15 159.085 1058.01 161.624 1058.9 164.312C1059.87 166.925 1060.77 169.501 1061.59 172.04H1062.04C1062.86 169.576 1063.64 167 1064.39 164.312C1065.14 161.624 1065.88 159.085 1066.63 156.696L1076.38 126.568H1085.34L1064.84 185.48C1063.87 188.168 1062.79 190.669 1061.59 192.984C1060.4 195.299 1058.98 197.277 1057.34 198.92C1055.69 200.637 1053.83 201.981 1051.74 202.952C1049.64 203.923 1047.22 204.408 1044.46 204.408ZM1110.06 182.344C1106.18 182.344 1102.49 181.635 1098.98 180.216C1095.47 178.797 1092.41 177.005 1089.79 174.84L1094.38 168.68C1096.77 170.621 1099.2 172.189 1101.66 173.384C1104.2 174.579 1107.11 175.176 1110.4 175.176C1113.98 175.176 1116.67 174.355 1118.46 172.712C1120.26 171.069 1121.15 169.053 1121.15 166.664C1121.15 165.245 1120.78 164.013 1120.03 162.968C1119.29 161.923 1118.31 161.027 1117.12 160.28C1116 159.459 1114.69 158.749 1113.2 158.152C1111.71 157.555 1110.21 156.957 1108.72 156.36C1106.78 155.688 1104.84 154.941 1102.9 154.12C1100.95 153.224 1099.2 152.179 1097.63 150.984C1096.14 149.715 1094.91 148.259 1093.94 146.616C1092.97 144.973 1092.48 142.995 1092.48 140.68C1092.48 138.515 1092.89 136.499 1093.71 134.632C1094.61 132.691 1095.84 131.048 1097.41 129.704C1099.05 128.285 1101.03 127.203 1103.34 126.456C1105.66 125.635 1108.27 125.224 1111.18 125.224C1114.62 125.224 1117.75 125.821 1120.59 127.016C1123.5 128.211 1126.01 129.667 1128.1 131.384L1123.73 137.208C1121.86 135.789 1119.92 134.632 1117.9 133.736C1115.89 132.84 1113.69 132.392 1111.3 132.392C1107.86 132.392 1105.32 133.176 1103.68 134.744C1102.11 136.312 1101.33 138.141 1101.33 140.232C1101.33 141.501 1101.66 142.621 1102.34 143.592C1103.01 144.488 1103.9 145.309 1105.02 146.056C1106.14 146.728 1107.41 147.363 1108.83 147.96C1110.33 148.483 1111.86 149.043 1113.42 149.64C1115.37 150.387 1117.31 151.171 1119.25 151.992C1121.26 152.813 1123.06 153.859 1124.62 155.128C1126.19 156.323 1127.46 157.816 1128.43 159.608C1129.48 161.4 1130 163.565 1130 166.104C1130 168.344 1129.55 170.435 1128.66 172.376C1127.83 174.317 1126.57 176.035 1124.85 177.528C1123.21 179.021 1121.11 180.179 1118.58 181C1116.11 181.896 1113.27 182.344 1110.06 182.344ZM1157.71 182.344C1154.8 182.344 1152.33 181.896 1150.32 181C1148.38 180.104 1146.77 178.872 1145.5 177.304C1144.31 175.736 1143.45 173.832 1142.93 171.592C1142.4 169.352 1142.14 166.888 1142.14 164.2V134.072H1134.08V127.128L1142.59 126.568L1143.71 111.336H1151.44V126.568H1166.11V134.072H1151.44V164.312C1151.44 167.672 1152.04 170.285 1153.23 172.152C1154.5 173.944 1156.7 174.84 1159.84 174.84C1160.81 174.84 1161.85 174.691 1162.97 174.392C1164.09 174.093 1165.1 173.757 1166 173.384L1167.79 180.328C1166.3 180.851 1164.65 181.299 1162.86 181.672C1161.15 182.12 1159.43 182.344 1157.71 182.344ZM1198.95 182.344C1195.29 182.344 1191.86 181.709 1188.65 180.44C1185.51 179.096 1182.75 177.229 1180.36 174.84C1178.04 172.376 1176.22 169.389 1174.87 165.88C1173.53 162.371 1172.86 158.376 1172.86 153.896C1172.86 149.416 1173.53 145.421 1174.87 141.912C1176.29 138.328 1178.12 135.304 1180.36 132.84C1182.67 130.376 1185.29 128.509 1188.2 127.24C1191.11 125.896 1194.14 125.224 1197.27 125.224C1200.71 125.224 1203.77 125.821 1206.46 127.016C1209.22 128.211 1211.5 129.928 1213.29 132.168C1215.15 134.408 1216.57 137.096 1217.54 140.232C1218.51 143.368 1219 146.877 1219 150.76C1219 151.731 1218.96 152.701 1218.89 153.672C1218.89 154.568 1218.81 155.352 1218.66 156.024H1181.93C1182.3 161.848 1184.09 166.477 1187.3 169.912C1190.59 173.272 1194.84 174.952 1200.07 174.952C1202.68 174.952 1205.07 174.579 1207.24 173.832C1209.48 173.011 1211.61 171.965 1213.62 170.696L1216.87 176.744C1214.48 178.237 1211.83 179.544 1208.92 180.664C1206.01 181.784 1202.68 182.344 1198.95 182.344ZM1181.82 149.416H1210.94C1210.94 143.891 1209.74 139.709 1207.35 136.872C1205.04 133.96 1201.75 132.504 1197.5 132.504C1195.55 132.504 1193.69 132.877 1191.9 133.624C1190.18 134.371 1188.61 135.491 1187.19 136.984C1185.77 138.403 1184.58 140.157 1183.61 142.248C1182.71 144.339 1182.11 146.728 1181.82 149.416ZM1232.45 181V126.568H1240.07L1240.85 134.408H1241.19C1243.57 131.795 1246.15 129.629 1248.91 127.912C1251.75 126.12 1254.81 125.224 1258.1 125.224C1262.28 125.224 1265.53 126.157 1267.84 128.024C1270.23 129.816 1271.99 132.355 1273.11 135.64C1275.94 132.504 1278.78 130.003 1281.62 128.136C1284.53 126.195 1287.67 125.224 1291.03 125.224C1296.63 125.224 1300.77 127.016 1303.46 130.6C1306.22 134.184 1307.6 139.485 1307.6 146.504V181H1298.42V147.736C1298.42 142.584 1297.6 138.888 1295.95 136.648C1294.31 134.333 1291.77 133.176 1288.34 133.176C1284.23 133.176 1279.68 135.976 1274.67 141.576V181H1265.49V147.736C1265.49 142.584 1264.67 138.888 1263.03 136.648C1261.38 134.333 1258.81 133.176 1255.3 133.176C1251.19 133.176 1246.64 135.976 1241.63 141.576V181H1232.45Z" fill="#333333"/>
<defs>
<linearGradient id="paint0_linear" x1="21" y1="90.9784" x2="155.722" y2="90.9784" gradientUnits="userSpaceOnUse">
<stop stop-color="#7144C6"/>
<stop offset="0.59" stop-color="#8045C9"/>
<stop offset="1" stop-color="#8E46CC"/>
</linearGradient>
</defs>
</svg>
